%YAML 1.1
%TAG !u! tag:unity3d.com,2011:
--- !u!74 &7400000
AnimationClip:
  m_ObjectHideFlags: 0
  m_CorrespondingSourceObject: {fileID: 0}
  m_PrefabInstance: {fileID: 0}
  m_PrefabAsset: {fileID: 0}
  m_Name: Vexx_Standing
  serializedVersion: 6
  m_Legacy: 0
  m_Compressed: 0
  m_UseHighQualityCurve: 1
  m_RotationCurves: []
  m_CompressedRotationCurves: []
  m_EulerCurves: []
  m_PositionCurves: []
  m_ScaleCurves: []
  m_FloatCurves: []
  m_PPtrCurves:
  - curve:
    - time: 0
      value: {fileID: 21300000, guid: a4e2d46e9cac2da4082516c7a3cc2612, type: 3}
    - time: 0.25
      value: {fileID: 21300000, guid: 1910763e63b84eb4a99d6dbdb779a2fb, type: 3}
    - time: 0.5
      value: {fileID: 21300000, guid: 6583fa193093d0847941343c1b68b488, type: 3}
    - time: 0.75
      value: {fileID: 21300000, guid: 3bc64b5733f43a9479f0ed139a8e5af7, type: 3}
    - time: 1
      value: {fileID: 21300000, guid: 266b847ced2cf9543b6612f1fbc4502a, type: 3}
    - time: 1.25
      value: {fileID: 21300000, guid: a562db6995df8e045a483c83c7795abe, type: 3}
    - time: 1.5
      value: {fileID: 21300000, guid: d4bfd76839616e64292978c3cb0bf8be, type: 3}
    - time: 1.75
      value: {fileID: 21300000, guid: 1a207a7504c04ea409088178a270a885, type: 3}
    - time: 2
      value: {fileID: 21300000, guid: a2eb686f88c3de9429ae4a59d8def84d, type: 3}
    attribute: m_Sprite
    path: 
    classID: 212
    script: {fileID: 0}
  m_SampleRate: 4
  m_WrapMode: 0
  m_Bounds:
    m_Center: {x: 0, y: 0, z: 0}
    m_Extent: {x: 0, y: 0, z: 0}
  m_ClipBindingConstant:
    genericBindings:
    - serializedVersion: 2
      path: 0
      attribute: 0
      script: {fileID: 0}
      typeID: 212
      customType: 23
      isPPtrCurve: 1
    pptrCurveMapping:
    - {fileID: 21300000, guid: a4e2d46e9cac2da4082516c7a3cc2612, type: 3}
    - {fileID: 21300000, guid: 1910763e63b84eb4a99d6dbdb779a2fb, type: 3}
    - {fileID: 21300000, guid: 6583fa193093d0847941343c1b68b488, type: 3}
    - {fileID: 21300000, guid: 3bc64b5733f43a9479f0ed139a8e5af7, type: 3}
    - {fileID: 21300000, guid: 266b847ced2cf9543b6612f1fbc4502a, type: 3}
    - {fileID: 21300000, guid: a562db6995df8e045a483c83c7795abe, type: 3}
    - {fileID: 21300000, guid: d4bfd76839616e64292978c3cb0bf8be, type: 3}
    - {fileID: 21300000, guid: 1a207a7504c04ea409088178a270a885, type: 3}
    - {fileID: 21300000, guid: a2eb686f88c3de9429ae4a59d8def84d, type: 3}
  m_AnimationClipSettings:
    serializedVersion: 2
    m_AdditiveReferencePoseClip: {fileID: 0}
    m_AdditiveReferencePoseTime: 0
    m_StartTime: 0
    m_StopTime: 2.25
    m_OrientationOffsetY: 0
    m_Level: 0
    m_CycleOffset: 0
    m_HasAdditiveReferencePose: 0
    m_LoopTime: 1
    m_LoopBlend: 0
    m_LoopBlendOrientation: 0
    m_LoopBlendPositionY: 0
    m_LoopBlendPositionXZ: 0
    m_KeepOriginalOrientation: 0
    m_KeepOriginalPositionY: 1
    m_KeepOriginalPositionXZ: 0
    m_HeightFromFeet: 0
    m_Mirror: 0
  m_EditorCurves: []
  m_EulerEditorCurves: []
  m_HasGenericRootTransform: 0
  m_HasMotionFloatCurves: 0
  m_Events: []
